<?xml version="1.0" encoding="utf-8"?>
<!-- Generator: Adobe Illustrator 22.1.0, SVG Export Plug-In . SVG Version: 6.00 Build 0)  -->
<svg version="1.1" id="Layer_1" xmlns="http://www.w3.org/2000/svg" xmlns:xlink="http://www.w3.org/1999/xlink" x="0px" y="0px"
	 viewBox="0 0 504.5 504.5" style="enable-background:new 0 0 504.5 504.5;" xml:space="preserve" width="100px" height="100px">
<style type="text/css">
	.st0{fill:#F4F0D3;}
	.st1{fill:#E8E4C8;}
	.st2{fill:#EFC75E;}
	.st3{fill:#E3BD59;}
	.st4{fill:#AA9A97;}
	.st5{fill:#FFFFFF;}
</style>
<path class="st0" d="M394.2,450.6c21.7,9.5,81.5,36.6,102.8,45.3c2.4,1.2,7.9,0.8,7.1-4.3c-4.7-51.2-33.5-344.6-38.6-396.6
	c-0.8-7.5-3.2-8.7-8.7-10.6C439.9,78,398.9,63.4,382,57.5c-5.9-2.4-9.5-2.4-15.8,0C339.8,65,256.3,90.6,256.3,90.6
	s-87-26.4-114.2-33.9c-5.9-2-9.1-2.4-15.8,0.4C109,62.6,68.9,77.6,51.5,83.9c-7.1,2.8-7.9,5.9-8.7,10.6c-5.5,50.8-37,345.4-42.5,397
	c-0.4,5.9,4.7,5.5,9.5,3.9c23.6-9.5,83.5-35.4,104.8-44.1c4.3-2,8.7-3.2,15.8,0c24,9.8,94.5,41.7,117.8,51.2c5.1,2.4,9.8,2.8,15.8,0
	c23.2-9.8,91.4-41.4,114.2-51.6C382.4,448.6,389.1,448.2,394.2,450.6z"/>
<path class="st1" d="M137,55.5c-3.2-0.4-6.3,0-10.6,1.6C109,62.6,68.9,77.6,51.5,83.9c-7.1,2.8-7.9,5.9-8.7,10.6
	c-5.5,50.8-37,345.4-42.5,397c-0.4,5.9,4.7,5.5,9.5,3.9c23.6-9.5,83.5-35.4,104.8-44.1c3.2-1.2,5.9-2.4,10.2-1.6
	C124.8,449.8,137,55.5,137,55.5z M372.1,55.5c-1.6,0.4-3.2,0.8-5.1,1.6C340.6,65,260.3,89.4,256.7,90.6v413.5c2.4,0,5.1-0.8,7.9-2
	c23.2-9.8,91.4-41.4,114.2-51.6c1.6-0.8,3.5-1.2,5.5-1.6C384.3,449,372.1,55.5,372.1,55.5z"/>
<path class="st2" d="M184.3,474.6l68.9-68.9l70.1,70.1c14.6-6.7,28.8-13.4,40.2-18.5L111.8,206L233.9,83.9
	c-12.6-3.9-29.1-8.7-44.9-13.4L82.7,176.8l-43.7-43.7c-1.6,15-3.5,33.1-5.5,53.2L224,376.9l-80,80
	C155.1,461.6,169.7,467.9,184.3,474.6L184.3,474.6z"/>
<path class="st3" d="M133.1,184.7l2-60.3l-52.4,52l-43.7-43.3c-1.6,15-3.5,33.1-5.5,53.2l96.9,96.9l1.6-57.1l-19.7-19.7L133.1,184.7
	z M256.3,409.2l66.6,66.6c14.6-6.7,28.8-13.4,40.2-18.5L256.3,350.5V409.2z"/>
<path class="st4" d="M315.4,0c63,0,114.2,51.2,114.2,114.6c0,1.2-0.4,30.7-10.2,51.6c-23.2,54-79.2,111.1-97.7,129.6
	c-4.7,4.3-6.7,5.1-12.6-0.4c-18.9-18.5-74-74.8-97.3-128.4c-8.3-15.8-10.6-49.6-10.6-52.4C201.2,51.2,252.4,0,315.4,0z"/>
<path class="st5" d="M315.4,55.1c-32.7,0-59.1,26.4-59.1,59.1s26.4,59.1,59.1,59.1s59.1-26.4,59.1-59.1S348.1,55.1,315.4,55.1z
	 M315.4,149.7c-19.7,0-35.4-15.8-35.4-35.4s15.8-35.4,35.4-35.4s35.4,15.8,35.4,35.4S335.1,149.7,315.4,149.7z"/>
</svg>
